<?xml version="1.0" encoding="UTF-8"?>
<session version="1.0">
<refactoring comment="Copy element &apos;UserController.java&apos; to &apos;user-services1/src/main/java/com.te.userservices1&apos;&#x0D;&#x0A;- Original project: &apos;user_services&apos;&#x0D;&#x0A;- Destination element: &apos;user-services1/src/main/java/com.te.userservices1&apos;&#x0D;&#x0A;- Original element: &apos;com.te.user_services.controller.UserController.java&apos;" description="Copy compilation unit" destination="=user-services1/src\/main\/java=/optional=/true=/=/maven.pomderived=/true=/&lt;com.te.userservices1" element1="/src\/main\/java=/optional=/true=/=/maven.pomderived=/true=/&lt;com.te.user_services.controller{UserController.java" files="0" flags="589830" folders="0" id="org.eclipse.jdt.ui.copy" policy="org.eclipse.jdt.ui.copyResources" stamp="1671532674746" units="1" version="1.0"/>
</session>